%YAML 1.1
%TAG !u! tag:unity3d.com,2011:
--- !u!1045 &1
EditorBuildSettings:
  m_ObjectHideFlags: 0
  serializedVersion: 2
  m_Scenes:
  - enabled: 0
    path: Assets/Scenes/SampleScene.unity
    guid: d1c3109bdb54ad54c8a2b2838528e640
  - enabled: 1
    path: Assets/Scenes/TestScene1.unity
    guid: e956b7efe4feb6b4d962757f51c86ba3
  m_configObjects: {}
